{
  "name": "gateways-client",
  "$schema": "../../../node_modules/nx/schemas/project-schema.json",
  "sourceRoot": "apps/gateways/client/src",
  "projectType": "application",
  "targets": {
    "build": {
      "executor": "@nrwl/webpack:webpack",
      "outputs": [
        "{options.outputPath}"
      ],
      "options": {
        "target": "node",
        "compiler": "tsc",
        "outputPath": "dist/apps/gateways/client",
        "main": "apps/gateways/client/src/main.ts",
        "tsConfig": "apps/gateways/client/tsconfig.app.json",
        "assets": [
          "apps/gateways/client/src/assets"
        ],
        "isolatedConfig": true,
        "webpackConfig": "apps/gateways/client/webpack.config.js"
      },
      "configurations": {
        "production": {
          "optimization": true,
          "extractLicenses": true,
          "inspect": false
        }
      }
    },
    "serve": {
      "executor": "@nrwl/js:node",
      "options": {
        "buildTarget": "gateways-client:build"
      },
      "configurations": {
        "production": {
          "buildTarget": "gateways-client:build:production"
        }
      }
    },
    "lint": {
      "executor": "@nrwl/linter:eslint",
      "outputs": [
        "{options.outputFile}"
      ],
      "options": {
        "lintFilePatterns": [
          "apps/gateways/client/**/*.ts"
        ]
      }
    },
    "test": {
      "executor": "@nrwl/jest:jest",
      "outputs": [
        "{workspaceRoot}/coverage/{projectRoot}"
      ],
      "options": {
        "jestConfig": "apps/gateways/client/jest.config.ts",
        "passWithNoTests": true
      },
      "configurations": {
        "ci": {
          "ci": true,
          "codeCoverage": true
        }
      }
    }
  },
  "tags": []
}
