{
  "name": "provider",
  "$schema": "../../node_modules/nx/schemas/project-schema.json",
  "sourceRoot": "libs/provider/src",
  "projectType": "library",
  "targets": {
    "build": {
      "executor": "@nrwl/js:tsc",
      "outputs": [
        "{options.outputPath}"
      ],
      "options": {
        "outputPath": "dist/libs/provider",
        "tsConfig": "libs/provider/tsconfig.lib.json",
        "packageJson": "libs/provider/package.json",
        "main": "libs/provider/src/index.ts",
        "assets": [
          "libs/provider/*.md"
        ]
      }
    },
    "publish": {
      "executor": "nx:run-commands",
      "options": {
        "command": "node tools/scripts/publish.mjs provider {args.ver} {args.tag}"
      },
      "dependsOn": [
        "build"
      ]
    },
    "lint": {
      "executor": "@nrwl/linter:eslint",
      "outputs": [
        "{options.outputFile}"
      ],
      "options": {
        "lintFilePatterns": [
          "libs/provider/**/*.ts"
        ]
      }
    },
    "test": {
      "executor": "@nrwl/jest:jest",
      "outputs": [
        "{workspaceRoot}/coverage/{projectRoot}"
      ],
      "options": {
        "jestConfig": "libs/provider/jest.config.ts",
        "passWithNoTests": true
      },
      "configurations": {
        "ci": {
          "ci": true,
          "codeCoverage": true
        }
      }
    }
  },
  "tags": []
}
